MAT 434 Final Project
…
tictoc::toc()

656.981 sec elapsed

Code

parallel::stopCluster(cluster)

unregister()

rf_tuned %>%
  collect_metrics() 

# A tibble: 40 × 8
    mtry min_n .metric   .estimator  mean     n  std_err .config              
   <int> <int> <chr>     <chr>      <dbl> <int>    <dbl> <chr>                
 1     5     3 accuracy  binary     0.969    10 0.000556 Preprocessor1_Model01
 2     5     3 precision binary     0.973    10 0.000444 Preprocessor1_Model01
 3     5     3 recall    binary     0.994    10 0.000307 Preprocessor1_Model01
 4     5     3 roc_auc   binary     0.967    10 0.000779 Preprocessor1_Model01
 5     1     7 accuracy  binary     0.972    10 0.000400 Preprocessor1_Model02
 6     1     7 precision binary     0.970    10 0.000443 Preprocessor1_Model02
 7     1     7 recall    binary     1        10 0        Preprocessor1_Model02
 8     1     7 roc_auc   binary     0.960    10 0.00107  Preprocessor1_Model02
 9     5    12 accuracy  binary     0.971    10 0.000522 Preprocessor1_Model03
10     5    12 precision binary     0.972    10 0.000491 Preprocessor1_Model03
# ℹ 30 more rows
…
